{
    "title": "Банк",
    "information": "Анкета проверки банка. получение кредита",
    "weight": 34,
    "blocks": [
        {
            "title": "Встреча и приветствие",
            "id": "b1",
            "weight": 29,
            "sort": 1,
            "sections": [
                {
                    "title": "Основная информация о визите",
                    "weight": 2,
                    "id": 1134,
                    "sort": 1,
                    "questions": [
                        {
                            "title": "Состоялачь ли консультация с специалистом",
                            "type": "files",
                            "id": "q1",
                            "sort": 0,
                            "files": {
                                "max": 4,
                                "required": "true",
                                "accept": "video"
                            }
                        },
                        {
                            "title": "Выберите услугу по которой проводилась консультация",
                            "type": "radio",
                            "weight": 1,
                            "id": "q2",
                            "sort": 2,
                            "variants": [
                                {
                                    "title": "Товар в рассрочку",
                                    "score": 1,
                                    "id": "v21"
                                },
                                {
                                    "title": "Оплата частями",
                                    "score": 1,
                                    "id": "v22"
                                },
                                {
                                    "title": "Денежный кредит",
                                    "score": 1,
                                    "id": "v23"
                                }
                            ]
                        },
                        {
                            "title": "Комментарии по разделу анкеты",
                            "type": "textarea",
                            "id": "q3",
                            "sort": 3
                        }
                    ]
                },
                {
                    "title": "Встреча с сотрудником Банка (администратором)",
                    "weight": 18,
                    "id": 1151,
                    "sort": 2,
                    "comments": true,
                    "questions": [
                        {
                            "title": "Сотрудник Банка поприветствовал Вас?",
                            "type": "radio",
                            "weight": 5,
                            "id": "q5",
                            "sort": 1,
                            "variants": [
                                {
                                    "title": "Да",
                                    "score": 2,
                                    "id": "v51"
                                },
                                {
                                    "title": "Нет",
                                    "score": 1,
                                    "id": "v52"
                                }
                            ]
                        },
                        {
                            "title": "Сотрудник Банка представился Вам",
                            "type": "radio",
                            "id": "q15",
                            "sort": 1,
                            "variants": [
                                {
                                    "title": "Да",
                                    "score": 1,
                                    "id": "v151"
                                },
                                {
                                    "title": "Нет",
                                    "score": 0,
                                    "id": "v152"
                                }
                            ]
                        },
                        {
                            "title": "Напишите кем представился сотрудник банка (ФИО, должность)",
                            "type": "input",
                            "id": "q2",
                            "sort": 1
                        },
                        {
                            "title": "Присутствовал ли бейдж на сотруднике банка?",
                            "type": "radio",
                            "weight": 5,
                            "id": "q6",
                            "sort": 1,
                            "variants": [
                                {
                                    "title": "Да",
                                    "score": 1,
                                    "id": "v61"
                                },
                                {
                                    "title": "Нет",
                                    "score": 0,
                                    "id": "v62"
                                }
                            ]
                        },
                        {
                            "title": "Сотрудник поинтересовался как можно к Вам обращаться?",
                            "type": "radio",
                            "weight": 3,
                            "id": "q7",
                            "sort": 1,
                            "variants": [
                                {
                                    "title": "Да",
                                    "score": 1,
                                    "id": "v71"
                                },
                                {
                                    "title": "Нет",
                                    "score": 0,
                                    "id": "v72"
                                }
                            ]
                        },
                        {
                            "title": "Внешний вид сотрудника Банка соответствовал деловому стилю?",
                            "type": "radio",
                            "weight": 2,
                            "id": 1177,
                            "sort": 1,
                            "variants": [
                                {
                                    "title": "Да",
                                    "score": 1,
                                    "id": "v81"
                                },
                                {
                                    "title": "Нет",
                                    "score": 0,
                                    "id": "v82"
                                }
                            ]
                        },
                        {
                            "title": "Принес ли сотрудник Банка извинения за ожидание, в случае если все специалисты будут заняты?",
                            "type": "radio",
                            "weight": 5,
                            "id": "q9",
                            "sort": 1,
                            "variants": [
                                {
                                    "title": "Да",
                                    "score": 1,
                                    "id": "v91"
                                },
                                {
                                    "title": "Нет",
                                    "score": 0,
                                    "id": "v92"
                                }
                            ]
                        },
                        {
                            "title": "Сотрудник Банка направил Вас к нужному специалисту?",
                            "type": "radio",
                            "weight": 5,
                            "id": "q110",
                            "sort": 1,
                            "variants": [
                                {
                                    "title": "Да",
                                    "score": 1,
                                    "id": "v1101"
                                },
                                {
                                    "title": "Нет",
                                    "score": 0,
                                    "id": "v1102"
                                }
                            ]
                        }
                    ]
                },
                {
                    "title": "Встреча с спецалистом ( по кредитованию/депозиту)",
                    "weight": 9,
                    "id": 1216,
                    "sort": 3,
                    "comments": true,
                    "questions": [
                        {
                            "title": "Как долго вам пришлось ожидать обслуживания специалистом?",
                            "type": "radio",
                            "weight": 1,
                            "id": "q10",
                            "sort": 1,
                            "variants": [
                                {
                                    "title": "Менее 5 минут",
                                    "score": 2,
                                    "id": "v101"
                                },
                                {
                                    "title": "Более 10 минут",
                                    "score": 1,
                                    "id": "v102"
                                },
                                {
                                    "title": "Более 15 минут",
                                    "score": 0,
                                    "id": "v103"
                                }
                            ]
                        },
                        {
                            "title": "Специалист Банка поприветствовал Вас?",
                            "type": "radio",
                            "weight": 8,
                            "id": "q11",
                            "sort": 1,
                            "variants": [
                                {
                                    "title": "Да",
                                    "score": 1,
                                    "id": "v111"
                                },
                                {
                                    "title": "Нет",
                                    "score": 0,
                                    "id": "v112"
                                }
                            ]
                        },
                        {
                            "title": "Специалист  Банка представился Вам?",
                            "type": "radio",
                            "id": "q16",
                            "sort": 1,
                            "variants": [
                                {
                                    "title": "Да",
                                    "score": 1,
                                    "id": "v161"
                                },
                                {
                                    "title": "Нет",
                                    "score": 0,
                                    "id": "v162"
                                }
                            ]
                        },
                        {
                            "title": "Напишите кем представился специалист Банка (ФИО)",
                            "type": "input",
                            "id": "q17",
                            "sort": 1
                        },
                        {
                            "title": "Присутствовал ли бейдж на специалисте Банка?",
                            "type": "radio",
                            "weight": 8,
                            "id": "q13",
                            "sort": 1,
                            "variants": [
                                {
                                    "title": "Да",
                                    "score": 1,
                                    "id": "v131"
                                },
                                {
                                    "title": "Нет",
                                    "score": 0,
                                    "id": "v132"
                                }
                            ]
                        },
                        {
                            "title": "Специалист Банка поинтересовался как можно к Вам обращаться?",
                            "type": "radio",
                            "weight": 8,
                            "id": "q12",
                            "sort": 1,
                            "variants": [
                                {
                                    "title": "Да",
                                    "score": 1,
                                    "id": "v121"
                                },
                                {
                                    "title": "Нет",
                                    "score": 0,
                                    "id": "v122"
                                }
                            ]
                        },
                        {
                            "title": "Внешний вид специалиста Банка соответствовал деловому стилю?",
                            "type": "radio",
                            "weight": 8,
                            "id": "q14",
                            "sort": 1,
                            "variants": [
                                {
                                    "title": "Да",
                                    "score": 1,
                                    "id": "v141"
                                },
                                {
                                    "title": "Нет",
                                    "score": 0,
                                    "id": "v142"
                                }
                            ]
                        }
                    ]
                }
            ]
        },
        {
            "title": "Выявление потребности, консультация",
            "id": "b2",
            "sort": 2,
            "sections": [
                {
                    "title": "Определение необходимой услуги",
                    "weight": 5,
                    "id": 5556,
                    "sort": 1,
                    "comments": true,
                    "questions": [
                        {
                            "title": "Специалист Банка уточнил цель Вашего визита",
                            "type": "radio",
                            "weight": 5,
                            "id": "q18",
                            "sort": 1,
                            "variants": [
                                {
                                    "title": "Да",
                                    "score": 1,
                                    "id": "v181"
                                },
                                {
                                    "title": "Нет",
                                    "score": 0,
                                    "id": "v182"
                                }
                            ]
                        },
                        {
                            "title": "Ваша потребность как клиента Банка была выявлена полностью?",
                            "type": "radio",
                            "weight": 5,
                            "id": "q19",
                            "sort": 1,
                            "note": "Отвечайте \"Да\", если СБ с помощью вопросов выяснил, что именно интересует, \"Нет\" - потребность выявленна частично",
                            "variants": [
                                {
                                    "title": "Да",
                                    "score": 1,
                                    "id": "v191"
                                },
                                {
                                    "title": "Нет",
                                    "score": 0,
                                    "id": "v192"
                                }
                            ]
                        },
                        {
                            "title": "На сколько компетентно, информативно, доходчиво СБ ознакомил Вас с нужной услугой",
                            "type": "radio",
                            "weight": 5,
                            "id": "q20",
                            "sort": 1,
                            "note": "Оцените от 1 до 5 баллов. 5 баллов - очень информативно, доходчиво и граматно, 1 балл - неграмотно, использовал слова-паразиты, внутренний сленг",
                            "variants": [
                                {
                                    "title": "1 балл",
                                    "score": 0,
                                    "id": "v201"
                                },
                                {
                                    "title": "2 балла",
                                    "score": 1,
                                    "id": "v202"
                                },
                                {
                                    "title": "3 балла",
                                    "score": 2,
                                    "id": "v203"
                                },
                                {
                                    "title": "4 балла",
                                    "score": 3,
                                    "id": "v204"
                                },
                                {
                                    "title": "5 баллов",
                                    "score": 4,
                                    "id": "v205"
                                }
                            ]
                        }
                    ]
                },
                {
                    "title": "Уровень ознакомлённости  специалиста  с материалами Банка",
                    "weight": 5,
                    "id": 5557,
                    "sort": 2,
                    "comments": true,
                    "questions": [
                        {
                            "title": "Специалист Банка пояснил особенности услуги",
                            "type": "radio",
                            "weight": 1,
                            "id": "q23",
                            "sort": 1,
                            "variants": [
                                {
                                    "title": "Да",
                                    "score": 1,
                                    "id": "v231"
                                },
                                {
                                    "title": "Нет",
                                    "score": 0,
                                    "id": "v232"
                                }
                            ]
                        },
                        {
                            "title": "Специалист Банка за помощью к коллегам во время консультации",
                            "type": "radio",
                            "weight": 1,
                            "id": "q24",
                            "sort": 1,
                            "variants": [
                                {
                                    "title": "Да",
                                    "score": 1,
                                    "id": "v241"
                                },
                                {
                                    "title": "Нет",
                                    "score": 0,
                                    "id": "v242"
                                }
                            ]
                        },
                        {
                            "title": "Специалист Банка обратил Ваше внимание на преимущества сотрудничества с этим банком",
                            "type": "radio",
                            "weight": 5,
                            "id": "q25",
                            "sort": 2,
                            "variants": [
                                {
                                    "title": "Да",
                                    "score": 1,
                                    "id": "v251"
                                },
                                {
                                    "title": "Нет",
                                    "score": 0,
                                    "id": "v252"
                                }
                            ]
                        }
                    ]
                },
                {
                    "title": "Возражения",
                    "weight": 5,
                    "id": 5558,
                    "sort": 2,
                    "comments": true,
                    "questions": [
                        {
                            "title": "Специалист Банка Ваши возражения внимательно?",
                            "type": "radio",
                            "weight": 1,
                            "id": "q23",
                            "sort": 1,
                            "variants": [
                                {
                                    "title": "Да, СБ согласился с моим мнением, ответил аргументированно, спокойно",
                                    "score": 1,
                                    "id": "v231"
                                },
                                {
                                    "title": "Нет, возразил, настаивал на своём мнении",
                                    "score": 0,
                                    "id": "v232"
                                }
                            ]
                        },
                        {
                            "title": "Специалист Банка привел веские аргументы,  чтобы развеять Ваши сомнения",
                            "type": "radio",
                            "weight": 1,
                            "id": "q24",
                            "sort": 1,
                            "variants": [
                                {
                                    "title": "Да",
                                    "score": 1,
                                    "id": "v241"
                                },
                                {
                                    "title": "Нет",
                                    "score": 0,
                                    "id": "v242"
                                }
                            ]
                        }
                    ]
                }
            ]
        },
        {
            "title": "Завершение визита",
            "id": "b3",
            "sort": 3,
            "sections": [
                {
                    "title": "Итоговое впечатление",
                    "weight": 5,
                    "id": "sn",
                    "sort": 1,
                    "comments": true,
                    "questions": [
                        {
                            "title": "Вам комфортно было находиться в отделении?",
                            "type": "radio",
                            "weight": 5,
                            "id": "q29",
                            "sort": 1,
                            "variants": [
                                {
                                    "title": "Да",
                                    "score": 1,
                                    "id": "v291"
                                },
                                {
                                    "title": "Нет",
                                    "score": 0,
                                    "id": "v292"
                                }
                            ]
                        },
                        {
                            "title": "Были ли свободные сотрудники в то время как клиенты ожидали консультацию?",
                            "type": "radio",
                            "weight": 5,
                            "id": "q30",
                            "sort": 1,
                            "note": "Была ли очередь при свободных, незанятых сотрудниках",
                            "variants": [
                                {
                                    "title": "Да",
                                    "score": 1,
                                    "id": "v301"
                                },
                                {
                                    "title": "Нет",
                                    "score": 0,
                                    "id": "v302"
                                }
                            ]
                        },
                        {
                            "title": "Рабочее место СБ выглядело аккуратно, без сторонних предметов?",
                            "type": "radio",
                            "weight": 5,
                            "id": "q301",
                            "sort": 1,
                            "variants": [
                                {
                                    "title": "Да",
                                    "score": 1,
                                    "id": "v3011"
                                },
                                {
                                    "title": "Нет",
                                    "score": 0,
                                    "id": "v3012"
                                }
                            ]
                        },
                        {
                            "title": "Чем занимались СБ?",
                            "type": "radio",
                            "weight": 5,
                            "id": "q302",
                            "sort": 1,
                            "note": "Выполняли прямые обязанности либо общались на личные темы, разговаривали по мобильлным телефонам, отвелекались на посторонние дела",
                            "variants": [
                                {
                                    "title": "Выполняли прямые обязанности",
                                    "score": 1,
                                    "id": "v3021"
                                },
                                {
                                    "title": "Занимались посторонними делами",
                                    "score": 0,
                                    "id": "v3022"
                                }
                            ]
                        },
                        {
                            "title": "Рекламная продукция удобно расположена в доступном для клиента месте на стендах, стойках, буклетницах?",
                            "type": "radio",
                            "weight": 5,
                            "id": "q32",
                            "sort": 1,
                            "variants": [
                                {
                                    "title": "Да",
                                    "score": 1,
                                    "id": "v321"
                                },
                                {
                                    "title": "Нет",
                                    "score": 0,
                                    "id": "v322"
                                }
                            ]
                        }
                    ]
                },
                {
                    "title": "Поддержание контакта \"Follow-up\"",
                    "weight": 5,
                    "id": "snn",
                    "sort": 1,
                    "comments": true,
                    "questions": [
                        {
                            "title": "Пытался ли Специалист Банка узнать, остались ли у Вас какие-либо вопросы?",
                            "type": "radio",
                            "weight": 5,
                            "id": "q229",
                            "sort": 1,
                            "variants": [
                                {
                                    "title": "Да",
                                    "score": 1,
                                    "id": "v2291"
                                },
                                {
                                    "title": "Нет",
                                    "score": 0,
                                    "id": "v2292"
                                }
                            ]
                        },
                        {
                            "title": "Специалист Банка оставил Вам свои контактные данные?",
                            "type": "radio",
                            "weight": 5,
                            "id": "q330",
                            "sort": 1,
                            "variants": [
                                {
                                    "title": "Да",
                                    "score": 1,
                                    "id": "v3301"
                                },
                                {
                                    "title": "Нет",
                                    "score": 0,
                                    "id": "v3302"
                                }
                            ]
                        },
                        {
                            "title": "Специалист Банка осведомился Вашими контактными данными?",
                            "type": "radio",
                            "weight": 5,
                            "id": "q3301",
                            "sort": 1,
                            "variants": [
                                {
                                    "title": "Да",
                                    "score": 1,
                                    "id": "v33011"
                                },
                                {
                                    "title": "Нет",
                                    "score": 0,
                                    "id": "v33012"
                                }
                            ]
                        },
                        {
                            "title": "Специалист Банка осведомил Вас об акциях и дополнительных услугах Банка?",
                            "type": "radio",
                            "weight": 5,
                            "id": "q3302",
                            "sort": 1,
                            "variants": [
                                {
                                    "title": "Да",
                                    "score": 1,
                                    "id": "v33021"
                                },
                                {
                                    "title": "Нет",
                                    "score": 0,
                                    "id": "v33022"
                                }
                            ]
                        },
                        {
                            "title": "Специалист Банка предложил Вам посетить ещё раз отделение банка?",
                            "type": "radio",
                            "weight": 5,
                            "id": "q3332",
                            "sort": 1,
                            "variants": [
                                {
                                    "title": "Да",
                                    "score": 1,
                                    "id": "v33321"
                                },
                                {
                                    "title": "Нет",
                                    "score": 0,
                                    "id": "v33322"
                                }
                            ]
                        },
                        {
                            "title": "Специалист Банка порекомендовал Вам взять рекламные материалы с собой?",
                            "type": "radio",
                            "weight": 5,
                            "id": "q3333",
                            "note": "Рекламные брошюры, буклеты, спец.предложения",
                            "sort": 1,
                            "variants": [
                                {
                                    "title": "Да",
                                    "score": 1,
                                    "id": "v3321"
                                },
                                {
                                    "title": "Нет",
                                    "score": 0,
                                    "id": "v3322"
                                }
                            ]
                        }
                    ]
                }
            ]
        },
        {
            "title": "Артефакты",
            "id": "b4",
            "sort": 4,
            "sections": [
                {
                    "id": "s41",
                    "title": "Материалы визита",
                    "questions": [
                        {
                            "id": "q33",
                            "title": "Загрузите аудиозапись визита",
                            "type": "audio"
                        },
                        {
                            "id": "q34",
                            "title": "Загрузите фото материалы",
                            "type": "image",
                            "note": "Фото должно быть выполненно незаметно до посещения автосалона"
                        }
                    ]
                }
            ]
        }
    ]
}